<svg width="19" height="17" viewBox="0 0 19 17" fill="none" xmlns="http://www.w3.org/2000/svg">
<path d="M9.375 15.6667C13.7242 15.6667 17.25 12.5327 17.25 8.66667C17.25 4.80067 13.7242 1.66667 9.375 1.66667C5.02576 1.66667 1.5 4.80067 1.5 8.66667C1.5 9.97236 1.90217 11.1945 2.60241 12.2407L1.5 15.6666L5.4491 14.7361C6.60478 15.3281 7.9454 15.6667 9.375 15.6667Z" stroke="#4E4B66" stroke-width="2" stroke-linejoin="round"/>
</svg>
