<svg width="20" height="20" viewBox="0 0 20 20" fill="none" xmlns="http://www.w3.org/2000/svg">
<circle cx="10" cy="10" r="8.25" stroke="#4E4B66" stroke-width="2"/>
<path d="M10 11.5V11.3545C10 10.3614 10.805 9.5701 11.5615 8.9267C12.0265 8.53122 12.3819 7.92357 12.25 7C11.9286 4.74998 8.875 5.875 8.875 5.875" stroke="#4E4B66" stroke-width="2" stroke-linecap="round" stroke-linejoin="round"/>
<path d="M10 13.75V14.125" stroke="#4E4B66" stroke-width="2" stroke-linecap="round" stroke-linejoin="round"/>
</svg>
