<svg width="24" height="24" viewBox="0 0 24 24" fill="none" xmlns="http://www.w3.org/2000/svg">
<path d="M19 9V15.5C19 17.433 17.433 19 15.5 19C13.567 19 12 17.433 12 15.5C12 17.433 10.433 19 8.5 19C6.567 19 5 17.433 5 15.5V9C5 5.13401 8.13401 2 12 2C15.866 2 19 5.13401 19 9Z" stroke="#6E7191" stroke-width="2"/>
<circle cx="12" cy="14" r="1" stroke="#6E7191" stroke-width="2"/>
<path d="M19 7V7C20.5621 6.4793 22.2144 7.50046 22.4472 9.13049L22.7554 11.2879C22.8845 12.1915 22.1833 13 21.2705 13H19V7Z" stroke="#6E7191" stroke-width="2"/>
<path d="M5 7V7C3.43791 6.4793 1.78565 7.50046 1.55279 9.13049L1.24459 11.2879C1.1155 12.1915 1.81669 13 2.72951 13H5V7Z" stroke="#6E7191" stroke-width="2"/>
<path d="M10 9V9.5" stroke="#6E7191" stroke-width="2" stroke-linecap="round" stroke-linejoin="round"/>
<path d="M14 9V9.5" stroke="#6E7191" stroke-width="2" stroke-linecap="round" stroke-linejoin="round"/>
<path d="M10 19C10 19 10 21.5 12 21.5C14 21.5 14 19 14 19" stroke="#6E7191" stroke-width="2" stroke-linecap="round" stroke-linejoin="round"/>
</svg>
