<svg width="211" height="17" viewBox="0 0 211 17" fill="none" xmlns="http://www.w3.org/2000/svg">
<path d="M2.16046 15.9267C1.30787 15.5663 0.564139 14.9996 0 14.2803L1.97259 11.9021C2.30773 12.3852 2.75391 12.7855 3.27569 13.0713C3.79746 13.3571 4.38048 13.5205 4.97845 13.5485C6.48138 13.5485 7.13891 12.7253 7.13891 11.0789V3.76145H1.59686V0.834473H10.8023V10.8045C10.9311 12.3621 10.4249 13.9065 9.3933 15.1035C8.21679 16.0712 6.70377 16.5623 5.16632 16.4755C4.13698 16.4876 3.11538 16.3011 2.16046 15.9267Z" fill="#424ADF"/>
<path d="M26.677 13.3656V16.2011H14.3717V0.834473H26.3012V3.76145H18.0351V7.05431H25.3619V9.79835H18.0351V13.3656H26.677Z" fill="#424ADF"/>
<path d="M32.7826 3.76145H27.8042V0.834473H41.5184V3.76145H36.446V16.2011H32.7826V3.76145Z" fill="#424ADF"/>
<path d="M46.7786 15.378C45.5674 14.7004 44.5625 13.7219 43.8667 12.5424C43.1029 11.3337 42.7116 9.93682 42.7395 8.51785C42.7244 7.12921 43.1153 5.76505 43.8667 4.58472C44.5625 3.40521 45.5674 2.42671 46.7786 1.7492C48.1169 1.08553 49.5978 0.740693 51.0996 0.743054C52.57 0.751639 54.0179 1.09627 55.3266 1.7492C56.5588 2.39965 57.5705 3.38476 58.2385 4.58472C58.9899 5.76505 59.3808 7.12921 59.3657 8.51785C59.3936 9.93682 59.0023 11.3337 58.2385 12.5424C57.5427 13.7219 56.5378 14.7004 55.3266 15.378C54.0179 16.0309 52.57 16.3755 51.0996 16.3841C49.5978 16.3865 48.1169 16.0416 46.7786 15.378ZM54.4812 14.0974C55.4601 13.5537 56.2711 12.7639 56.8295 11.8107C57.4061 10.8055 57.6978 9.66903 57.6749 8.51785C57.6948 7.396 57.4027 6.28981 56.8295 5.31646C56.2711 4.36324 55.4601 3.5735 54.4812 3.02976C53.4441 2.48013 52.2803 2.19682 51.0996 2.20654C49.9163 2.17512 48.7468 2.45982 47.718 3.02976C46.6924 3.54392 45.8435 4.33874 45.2757 5.31646C44.7025 6.28981 44.4104 7.396 44.4303 8.51785C44.4074 9.66903 44.6991 10.8055 45.2757 11.8107C45.8435 12.7884 46.6924 13.5832 47.718 14.0974C48.7468 14.6673 49.9163 14.952 51.0996 14.9206C52.2803 14.9303 53.4441 14.647 54.4812 14.0974Z" fill="#424ADF"/>
<path d="M73.7374 2.29798C74.301 2.77068 74.7464 3.36249 75.0394 4.02827C75.3324 4.69405 75.4654 5.4162 75.4282 6.13964C75.4654 6.86308 75.3324 7.58523 75.0394 8.251C74.7464 8.91678 74.301 9.50859 73.7374 9.9813C72.3548 10.9708 70.6594 11.4563 68.9468 11.3533H64.7198V16.2011H63.123V0.834486H68.9468C70.6709 0.757681 72.3674 1.27596 73.7374 2.29798ZM72.5163 8.97515C72.9353 8.62997 73.2644 8.19307 73.4766 7.70023C73.6889 7.20738 73.7782 6.67259 73.7374 6.13964C73.7861 5.60593 73.7004 5.0687 73.4876 4.57457C73.2748 4.08044 72.9414 3.64435 72.5163 3.30412C71.5 2.54115 70.2245 2.18162 68.9468 2.29798H64.7198V9.9813H68.9468C70.2201 10.0559 71.4808 9.70054 72.5163 8.97515Z" fill="#424ADF"/>
<path d="M89.706 2.29798C90.2697 2.77068 90.715 3.36249 91.008 4.02827C91.301 4.69405 91.434 5.4162 91.3968 6.13964C91.434 6.86308 91.301 7.58523 91.008 8.251C90.715 8.91678 90.2697 9.50859 89.706 9.9813C88.3234 10.9708 86.628 11.4563 84.9155 11.3533H80.6885V16.2011H79.0916V0.834486H84.9155C86.6395 0.757681 88.336 1.27596 89.706 2.29798ZM88.4849 8.97515C88.9039 8.62997 89.233 8.19307 89.4453 7.70023C89.6575 7.20738 89.7469 6.67259 89.706 6.13964C89.7548 5.60593 89.669 5.0687 89.4562 4.57457C89.2434 4.08044 88.91 3.64435 88.4849 3.30412C87.4686 2.54115 86.1931 2.18162 84.9155 2.29798H80.6885V9.9813H84.9155C86.1887 10.0559 87.4495 9.70054 88.4849 8.97515Z" fill="#424ADF"/>
<path d="M124.931 16.2012L121.361 11.2619H115.819V16.1097H114.129V0.834518H120.046C121.742 0.755455 123.41 1.27515 124.743 2.29801C125.335 2.75193 125.807 3.33796 126.117 4.00661C126.428 4.67525 126.569 5.40687 126.528 6.13967C126.53 7.21445 126.203 8.2655 125.588 9.15812C124.906 10.0374 123.951 10.6789 122.864 10.9875L126.716 16.2012H124.931ZM123.616 8.97518C124.035 8.63 124.364 8.19311 124.576 7.70026C124.788 7.20741 124.878 6.67262 124.837 6.13967C124.886 5.60596 124.8 5.06873 124.587 4.5746C124.374 4.08048 124.041 3.64438 123.616 3.30416C122.591 2.55708 121.322 2.19936 120.046 2.29801H115.819V9.98133H120.046C121.318 10.0414 122.574 9.68737 123.616 8.97518Z" fill="#424ADF"/>
<path d="M133.291 2.29796H127.749V0.834473H140.524V2.29796H134.982V16.2011H133.291V2.29796Z" fill="#424ADF"/>
<path d="M144.469 14.6462C143.248 13.5485 142.684 11.9021 142.684 9.70688V0.834473H144.375V9.61541C144.257 11.0578 144.692 12.4915 145.596 13.64C146.073 14.0751 146.635 14.4126 147.248 14.6326C147.861 14.8525 148.513 14.9504 149.166 14.9206C149.833 14.9576 150.502 14.8634 151.131 14.6434C151.761 14.4233 152.338 14.0821 152.829 13.64C153.733 12.4915 154.168 11.0578 154.05 9.61541V0.834473H155.647V9.70688C155.719 10.5985 155.607 11.4951 155.316 12.3436C155.026 13.1921 154.563 13.9751 153.956 14.6462C153.331 15.2509 152.58 15.7186 151.754 16.0183C150.927 16.318 150.045 16.4427 149.166 16.3841C148.301 16.4354 147.435 16.307 146.625 16.0073C145.816 15.7077 145.081 15.2437 144.469 14.6462Z" fill="#424ADF"/>
<path d="M173.87 0.834473V16.2011H172.555L162.41 3.76145V16.2011H160.719V0.834473H162.034L172.273 13.3656V0.834473H173.87Z" fill="#424ADF"/>
<path d="M179.036 0.834473H180.727V16.2011H179.036V0.834473Z" fill="#424ADF"/>
<path d="M188.899 2.29796H183.357V0.834473H196.132V2.29796H190.59V16.2011H188.899V2.29796Z" fill="#424ADF"/>
<path d="M204.116 10.896V16.2011H202.426V10.896L196.132 0.834473H197.917L203.271 9.52394L208.719 0.834473H210.41L204.116 10.896Z" fill="#424ADF"/>
<path d="M110.465 5.13349C110.365 5.04126 110.247 4.96947 110.118 4.92234C109.989 4.87521 109.851 4.85371 109.714 4.85908H107.553L105.769 5.6823L99.569 8.79221C99.3432 8.52542 99.0915 8.28038 98.8175 8.06047H98.7236L96.751 9.34102L94.7784 8.42634C94.1209 8.06047 94.2148 8.06047 93.5573 8.42634C92.8997 8.79221 93.0876 8.88368 93.3694 9.15809L95.4359 11.6277C95.4359 11.7192 95.5299 11.7192 95.5299 11.8107L94.9663 12.0851C94.9213 12.1014 94.8815 12.1287 94.8504 12.1642C94.8193 12.1998 94.798 12.2425 94.7886 12.2883C94.7792 12.3341 94.782 12.3815 94.7966 12.4259C94.8113 12.4704 94.8373 12.5105 94.8723 12.5424C94.8723 12.7253 95.0602 12.8168 95.2481 12.8168H95.5299L99.3811 11.6277L101.26 10.9874C100.881 11.5154 100.536 12.0652 100.227 12.6339C100.039 12.8168 100.039 12.9997 100.227 13.0912C100.414 13.1827 100.414 13.2742 100.696 13.1827L101.542 12.7253L102.011 12.4509L105.111 9.15809L105.393 8.97515L107.647 7.87753L109.902 6.68845C110.243 6.51845 110.534 6.26661 110.747 5.9567C110.815 5.81009 110.823 5.64404 110.771 5.49152C110.719 5.33901 110.61 5.2112 110.465 5.13349ZM98.7236 8.33487C98.8886 8.89923 99.2143 9.4066 99.6629 9.79836C99.389 9.65521 99.1583 9.44487 98.9935 9.18818C98.8288 8.93149 98.7357 8.63735 98.7236 8.33487Z" fill="#424ADF"/>
<path d="M108.681 8.97511C108.691 9.98059 108.397 10.9667 107.835 11.8106C107.306 12.7852 106.488 13.5821 105.487 14.0973C104.458 14.6673 103.288 14.952 102.105 14.9205C101.468 14.9266 100.834 14.834 100.227 14.6461L99.569 14.4632L98.7236 14.0973C98.4364 13.9678 98.1803 13.7808 97.9722 13.5485L96.1875 14.1888C96.6938 14.6571 97.2625 15.057 97.8783 15.3779C99.1869 16.0308 100.635 16.3754 102.105 16.384C103.578 16.3973 105.031 16.0514 106.332 15.3779C107.57 14.7028 108.606 13.7256 109.338 12.5424C110.074 11.326 110.433 9.92827 110.371 8.51777V8.06042L108.681 8.97511Z" fill="#424ADF"/>
<path d="M94.2149 6.96287C94.5745 6.98686 94.9257 7.08013 95.2481 7.23728H95.6239C95.7314 6.49511 95.9867 5.7805 96.3753 5.13351C96.9045 4.15891 97.7228 3.36207 98.7236 2.84681C99.7607 2.29719 100.925 2.01387 102.105 2.0236C103.288 1.99217 104.458 2.27687 105.487 2.84681C105.962 3.09867 106.403 3.40582 106.802 3.76149L107.084 3.57855H108.681C108.029 2.82444 107.231 2.20281 106.332 1.74919C105.031 1.07569 103.578 0.729801 102.105 0.743042C100.635 0.751627 99.1869 1.09626 97.8782 1.74919C96.6596 2.44898 95.6293 3.42088 94.8724 4.5847C94.493 5.34129 94.2092 6.13982 94.027 6.96287H94.2149Z" fill="#424ADF"/>
</svg>
