<svg width="18" height="18" viewBox="0 0 18 18" fill="none" xmlns="http://www.w3.org/2000/svg">
<path d="M17.997 7.28248C17.8251 7.29677 17.6526 7.30426 17.4799 7.30492C16.5475 7.30503 15.6297 7.10645 14.8094 6.7271C13.9892 6.34775 13.2922 5.79957 12.7814 5.13204V12.5312C12.7814 13.6129 12.4066 14.6702 11.7044 15.5695C11.0022 16.4689 10.0041 17.1698 8.83635 17.5837C7.6686 17.9976 6.38364 18.1059 5.14396 17.8949C3.90428 17.6839 2.76556 17.1631 1.8718 16.3982C0.978043 15.6334 0.369386 14.659 0.122799 13.5981C-0.123788 12.5373 0.00276847 11.4377 0.486467 10.4384C0.970166 9.43916 1.78928 8.58506 2.84023 7.98415C3.89118 7.38323 5.12676 7.06249 6.39073 7.06249C6.52413 7.06249 6.65454 7.07276 6.7857 7.07981V9.77474C6.65454 9.76128 6.52563 9.74075 6.39073 9.74075C5.52567 9.74075 4.69605 10.0348 4.08436 10.5583C3.47268 11.0817 3.12904 11.7916 3.12904 12.5319C3.12904 13.2721 3.47268 13.9821 4.08436 14.5055C4.69605 15.029 5.52567 15.323 6.39073 15.323C8.19245 15.323 9.78357 14.1083 9.78357 12.5665L9.81505 0H12.8279C12.9656 1.12023 13.559 2.16341 14.5045 2.94714C15.4499 3.73087 16.6872 4.20527 18 4.28739V7.28248" fill="#4E4B66"/>
</svg>
