<svg width="48" height="48" viewBox="0 0 48 48" fill="none" xmlns="http://www.w3.org/2000/svg">
<g opacity="0.1">
<circle cx="24" cy="24" r="24" fill="#3F65EA"/>
<circle cx="24" cy="24" r="24" fill="#4630D4" fill-opacity="0.5"/>
</g>
<path d="M15.4793 9.13729C15.1251 9.30881 14.9536 9.82305 15.0108 10.5085C15.0793 11.1597 15.3763 11.5142 15.8563 11.5142H16.1305V15.8566C16.1305 20.6678 16.142 20.7478 16.8275 20.9878C17.0332 21.0563 17.5702 21.1136 18.0275 21.1136H18.8732V21.6048V22.0963L17.8448 22.4163C16.4736 22.839 15.5593 23.4448 15.2278 24.1306C14.9993 24.599 14.9878 24.7133 15.0905 25.2506C15.5248 27.319 17.5132 30.153 19.3532 31.3302C19.936 31.6957 20.0044 31.776 19.9475 32.0614C19.9248 32.233 19.6732 33.7872 19.3875 35.5126C18.9075 38.5638 18.896 38.6666 19.079 39.0554C19.3075 39.5126 19.9017 39.8554 21.0448 40.1638C21.639 40.3354 22.2217 40.3696 24.016 40.3581C26.1302 40.3581 26.2902 40.335 27.1814 40.0496C28.2326 39.6954 28.6556 39.3869 28.8041 38.8838C28.8726 38.5981 28.3472 34.7926 27.8441 32.1184C27.7868 31.7757 27.8214 31.7299 28.4384 31.3299C30.2553 30.1757 32.1411 27.536 32.6553 25.4218C32.8384 24.6902 32.8384 24.6675 32.5868 24.1418C32.2784 23.5018 31.3756 22.8618 30.3126 22.5306L29.6156 22.3136V21.7078V21.1136H30.4726C31.3984 21.1136 31.9241 20.9309 32.1296 20.5536C32.198 20.4051 32.2438 18.7251 32.2438 15.9254V11.5142H32.5296C32.6896 11.5142 32.9523 11.3885 33.1011 11.2285C33.3411 11 33.3868 10.84 33.3868 10.2573C33.3868 9.67457 33.3411 9.51457 33.1011 9.28577L32.8268 9.00001L24.279 9.01153C18.5417 9.01153 15.6505 9.05729 15.4793 9.13729ZM32.7011 10.257V10.8285H24.1872H15.6736V10.257V9.68545H24.1872H32.7011V10.257V10.257ZM31.6726 15.7539C31.6726 18.4509 31.6268 20.0621 31.5584 20.2109C31.4441 20.4166 31.2384 20.4278 24.2675 20.4278C18.8393 20.4278 17.0566 20.3936 16.9536 20.2906C16.8505 20.1878 16.8163 19.0448 16.8163 15.8336V11.5139H24.2444H31.6726V15.7539ZM28.9299 21.5706C28.9299 22.1078 28.9756 22.0963 27.5014 21.8563C25.4214 21.5021 22.5987 21.5136 19.959 21.879L19.4448 21.9475V21.5248V21.1133H24.1872H28.9299V21.5706V21.5706ZM28.0156 22.5763C30.0499 22.999 31.2496 23.5133 31.8438 24.2221C32.2208 24.6678 32.1865 25.0675 31.6611 26.3133C30.9296 28.0733 29.3526 29.993 27.9126 30.8845C27.5356 31.113 27.2041 31.376 27.1699 31.4672C27.1356 31.5472 27.3641 33.193 27.6726 35.1126C28.0726 37.5811 28.2099 38.6781 28.1299 38.8154C27.9126 39.2269 26.3699 39.6723 24.7014 39.7981C22.9756 39.9354 20.4502 39.5011 19.776 38.9638L19.5248 38.7466L20.0617 35.4438C20.599 32.1184 20.656 31.5584 20.496 31.3299C20.4502 31.2726 20.2102 31.0899 19.9702 30.9414C18.1532 29.8445 16.2105 27.216 15.7763 25.2848C15.6505 24.7021 15.6505 24.6221 15.8678 24.3363C16.4278 23.5706 17.9475 22.9194 20.016 22.5536C21.4902 22.2909 21.7072 22.2794 24.4156 22.3136C26.3472 22.3478 27.1814 22.4048 28.0156 22.5763Z" fill="#3F65EA"/>
<path d="M15.4793 9.13729C15.1251 9.30881 14.9536 9.82305 15.0108 10.5085C15.0793 11.1597 15.3763 11.5142 15.8563 11.5142H16.1305V15.8566C16.1305 20.6678 16.142 20.7478 16.8275 20.9878C17.0332 21.0563 17.5702 21.1136 18.0275 21.1136H18.8732V21.6048V22.0963L17.8448 22.4163C16.4736 22.839 15.5593 23.4448 15.2278 24.1306C14.9993 24.599 14.9878 24.7133 15.0905 25.2506C15.5248 27.319 17.5132 30.153 19.3532 31.3302C19.936 31.6957 20.0044 31.776 19.9475 32.0614C19.9248 32.233 19.6732 33.7872 19.3875 35.5126C18.9075 38.5638 18.896 38.6666 19.079 39.0554C19.3075 39.5126 19.9017 39.8554 21.0448 40.1638C21.639 40.3354 22.2217 40.3696 24.016 40.3581C26.1302 40.3581 26.2902 40.335 27.1814 40.0496C28.2326 39.6954 28.6556 39.3869 28.8041 38.8838C28.8726 38.5981 28.3472 34.7926 27.8441 32.1184C27.7868 31.7757 27.8214 31.7299 28.4384 31.3299C30.2553 30.1757 32.1411 27.536 32.6553 25.4218C32.8384 24.6902 32.8384 24.6675 32.5868 24.1418C32.2784 23.5018 31.3756 22.8618 30.3126 22.5306L29.6156 22.3136V21.7078V21.1136H30.4726C31.3984 21.1136 31.9241 20.9309 32.1296 20.5536C32.198 20.4051 32.2438 18.7251 32.2438 15.9254V11.5142H32.5296C32.6896 11.5142 32.9523 11.3885 33.1011 11.2285C33.3411 11 33.3868 10.84 33.3868 10.2573C33.3868 9.67457 33.3411 9.51457 33.1011 9.28577L32.8268 9.00001L24.279 9.01153C18.5417 9.01153 15.6505 9.05729 15.4793 9.13729ZM32.7011 10.257V10.8285H24.1872H15.6736V10.257V9.68545H24.1872H32.7011V10.257V10.257ZM31.6726 15.7539C31.6726 18.4509 31.6268 20.0621 31.5584 20.2109C31.4441 20.4166 31.2384 20.4278 24.2675 20.4278C18.8393 20.4278 17.0566 20.3936 16.9536 20.2906C16.8505 20.1878 16.8163 19.0448 16.8163 15.8336V11.5139H24.2444H31.6726V15.7539ZM28.9299 21.5706C28.9299 22.1078 28.9756 22.0963 27.5014 21.8563C25.4214 21.5021 22.5987 21.5136 19.959 21.879L19.4448 21.9475V21.5248V21.1133H24.1872H28.9299V21.5706V21.5706ZM28.0156 22.5763C30.0499 22.999 31.2496 23.5133 31.8438 24.2221C32.2208 24.6678 32.1865 25.0675 31.6611 26.3133C30.9296 28.0733 29.3526 29.993 27.9126 30.8845C27.5356 31.113 27.2041 31.376 27.1699 31.4672C27.1356 31.5472 27.3641 33.193 27.6726 35.1126C28.0726 37.5811 28.2099 38.6781 28.1299 38.8154C27.9126 39.2269 26.3699 39.6723 24.7014 39.7981C22.9756 39.9354 20.4502 39.5011 19.776 38.9638L19.5248 38.7466L20.0617 35.4438C20.599 32.1184 20.656 31.5584 20.496 31.3299C20.4502 31.2726 20.2102 31.0899 19.9702 30.9414C18.1532 29.8445 16.2105 27.216 15.7763 25.2848C15.6505 24.7021 15.6505 24.6221 15.8678 24.3363C16.4278 23.5706 17.9475 22.9194 20.016 22.5536C21.4902 22.2909 21.7072 22.2794 24.4156 22.3136C26.3472 22.3478 27.1814 22.4048 28.0156 22.5763Z" fill="#4630D4" fill-opacity="0.5"/>
<path d="M15.4793 9.13729C15.1251 9.30881 14.9536 9.82305 15.0108 10.5085C15.0793 11.1597 15.3763 11.5142 15.8563 11.5142H16.1305V15.8566C16.1305 20.6678 16.142 20.7478 16.8275 20.9878C17.0332 21.0563 17.5702 21.1136 18.0275 21.1136H18.8732V21.6048V22.0963L17.8448 22.4163C16.4736 22.839 15.5593 23.4448 15.2278 24.1306C14.9993 24.599 14.9878 24.7133 15.0905 25.2506C15.5248 27.319 17.5132 30.153 19.3532 31.3302C19.936 31.6957 20.0044 31.776 19.9475 32.0614C19.9248 32.233 19.6732 33.7872 19.3875 35.5126C18.9075 38.5638 18.896 38.6666 19.079 39.0554C19.3075 39.5126 19.9017 39.8554 21.0448 40.1638C21.639 40.3354 22.2217 40.3696 24.016 40.3581C26.1302 40.3581 26.2902 40.335 27.1814 40.0496C28.2326 39.6954 28.6556 39.3869 28.8041 38.8838C28.8726 38.5981 28.3472 34.7926 27.8441 32.1184C27.7868 31.7757 27.8214 31.7299 28.4384 31.3299C30.2553 30.1757 32.1411 27.536 32.6553 25.4218C32.8384 24.6902 32.8384 24.6675 32.5868 24.1418C32.2784 23.5018 31.3756 22.8618 30.3126 22.5306L29.6156 22.3136V21.7078V21.1136H30.4726C31.3984 21.1136 31.9241 20.9309 32.1296 20.5536C32.198 20.4051 32.2438 18.7251 32.2438 15.9254V11.5142H32.5296C32.6896 11.5142 32.9523 11.3885 33.1011 11.2285C33.3411 11 33.3868 10.84 33.3868 10.2573C33.3868 9.67457 33.3411 9.51457 33.1011 9.28577L32.8268 9.00001L24.279 9.01153C18.5417 9.01153 15.6505 9.05729 15.4793 9.13729ZM32.7011 10.257V10.8285H24.1872H15.6736V10.257V9.68545H24.1872H32.7011V10.257V10.257ZM31.6726 15.7539C31.6726 18.4509 31.6268 20.0621 31.5584 20.2109C31.4441 20.4166 31.2384 20.4278 24.2675 20.4278C18.8393 20.4278 17.0566 20.3936 16.9536 20.2906C16.8505 20.1878 16.8163 19.0448 16.8163 15.8336V11.5139H24.2444H31.6726V15.7539ZM28.9299 21.5706C28.9299 22.1078 28.9756 22.0963 27.5014 21.8563C25.4214 21.5021 22.5987 21.5136 19.959 21.879L19.4448 21.9475V21.5248V21.1133H24.1872H28.9299V21.5706V21.5706ZM28.0156 22.5763C30.0499 22.999 31.2496 23.5133 31.8438 24.2221C32.2208 24.6678 32.1865 25.0675 31.6611 26.3133C30.9296 28.0733 29.3526 29.993 27.9126 30.8845C27.5356 31.113 27.2041 31.376 27.1699 31.4672C27.1356 31.5472 27.3641 33.193 27.6726 35.1126C28.0726 37.5811 28.2099 38.6781 28.1299 38.8154C27.9126 39.2269 26.3699 39.6723 24.7014 39.7981C22.9756 39.9354 20.4502 39.5011 19.776 38.9638L19.5248 38.7466L20.0617 35.4438C20.599 32.1184 20.656 31.5584 20.496 31.3299C20.4502 31.2726 20.2102 31.0899 19.9702 30.9414C18.1532 29.8445 16.2105 27.216 15.7763 25.2848C15.6505 24.7021 15.6505 24.6221 15.8678 24.3363C16.4278 23.5706 17.9475 22.9194 20.016 22.5536C21.4902 22.2909 21.7072 22.2794 24.4156 22.3136C26.3472 22.3478 27.1814 22.4048 28.0156 22.5763Z" stroke="#3F65EA" stroke-width="0.5"/>
<path d="M15.4793 9.13729C15.1251 9.30881 14.9536 9.82305 15.0108 10.5085C15.0793 11.1597 15.3763 11.5142 15.8563 11.5142H16.1305V15.8566C16.1305 20.6678 16.142 20.7478 16.8275 20.9878C17.0332 21.0563 17.5702 21.1136 18.0275 21.1136H18.8732V21.6048V22.0963L17.8448 22.4163C16.4736 22.839 15.5593 23.4448 15.2278 24.1306C14.9993 24.599 14.9878 24.7133 15.0905 25.2506C15.5248 27.319 17.5132 30.153 19.3532 31.3302C19.936 31.6957 20.0044 31.776 19.9475 32.0614C19.9248 32.233 19.6732 33.7872 19.3875 35.5126C18.9075 38.5638 18.896 38.6666 19.079 39.0554C19.3075 39.5126 19.9017 39.8554 21.0448 40.1638C21.639 40.3354 22.2217 40.3696 24.016 40.3581C26.1302 40.3581 26.2902 40.335 27.1814 40.0496C28.2326 39.6954 28.6556 39.3869 28.8041 38.8838C28.8726 38.5981 28.3472 34.7926 27.8441 32.1184C27.7868 31.7757 27.8214 31.7299 28.4384 31.3299C30.2553 30.1757 32.1411 27.536 32.6553 25.4218C32.8384 24.6902 32.8384 24.6675 32.5868 24.1418C32.2784 23.5018 31.3756 22.8618 30.3126 22.5306L29.6156 22.3136V21.7078V21.1136H30.4726C31.3984 21.1136 31.9241 20.9309 32.1296 20.5536C32.198 20.4051 32.2438 18.7251 32.2438 15.9254V11.5142H32.5296C32.6896 11.5142 32.9523 11.3885 33.1011 11.2285C33.3411 11 33.3868 10.84 33.3868 10.2573C33.3868 9.67457 33.3411 9.51457 33.1011 9.28577L32.8268 9.00001L24.279 9.01153C18.5417 9.01153 15.6505 9.05729 15.4793 9.13729ZM32.7011 10.257V10.8285H24.1872H15.6736V10.257V9.68545H24.1872H32.7011V10.257V10.257ZM31.6726 15.7539C31.6726 18.4509 31.6268 20.0621 31.5584 20.2109C31.4441 20.4166 31.2384 20.4278 24.2675 20.4278C18.8393 20.4278 17.0566 20.3936 16.9536 20.2906C16.8505 20.1878 16.8163 19.0448 16.8163 15.8336V11.5139H24.2444H31.6726V15.7539ZM28.9299 21.5706C28.9299 22.1078 28.9756 22.0963 27.5014 21.8563C25.4214 21.5021 22.5987 21.5136 19.959 21.879L19.4448 21.9475V21.5248V21.1133H24.1872H28.9299V21.5706V21.5706ZM28.0156 22.5763C30.0499 22.999 31.2496 23.5133 31.8438 24.2221C32.2208 24.6678 32.1865 25.0675 31.6611 26.3133C30.9296 28.0733 29.3526 29.993 27.9126 30.8845C27.5356 31.113 27.2041 31.376 27.1699 31.4672C27.1356 31.5472 27.3641 33.193 27.6726 35.1126C28.0726 37.5811 28.2099 38.6781 28.1299 38.8154C27.9126 39.2269 26.3699 39.6723 24.7014 39.7981C22.9756 39.9354 20.4502 39.5011 19.776 38.9638L19.5248 38.7466L20.0617 35.4438C20.599 32.1184 20.656 31.5584 20.496 31.3299C20.4502 31.2726 20.2102 31.0899 19.9702 30.9414C18.1532 29.8445 16.2105 27.216 15.7763 25.2848C15.6505 24.7021 15.6505 24.6221 15.8678 24.3363C16.4278 23.5706 17.9475 22.9194 20.016 22.5536C21.4902 22.2909 21.7072 22.2794 24.4156 22.3136C26.3472 22.3478 27.1814 22.4048 28.0156 22.5763Z" stroke="#4630D4" stroke-opacity="0.5" stroke-width="0.5"/>
<path d="M17.582 12.497C17.4447 12.634 17.4905 12.977 17.662 13.034C17.742 13.0682 18.062 13.137 18.3705 13.1713C18.679 13.217 19.022 13.354 19.1362 13.4686C19.4447 13.7886 19.9705 13.7543 20.2105 13.3886C20.382 13.1143 20.382 13.057 20.2332 12.7828C20.0617 12.4855 19.8562 12.4513 18.9878 12.5658C18.8962 12.5774 18.5535 12.5431 18.245 12.4974C17.9247 12.4513 17.6274 12.4513 17.582 12.497Z" fill="#3F65EA"/>
<path d="M17.582 12.497C17.4447 12.634 17.4905 12.977 17.662 13.034C17.742 13.0682 18.062 13.137 18.3705 13.1713C18.679 13.217 19.022 13.354 19.1362 13.4686C19.4447 13.7886 19.9705 13.7543 20.2105 13.3886C20.382 13.1143 20.382 13.057 20.2332 12.7828C20.0617 12.4855 19.8562 12.4513 18.9878 12.5658C18.8962 12.5774 18.5535 12.5431 18.245 12.4974C17.9247 12.4513 17.6274 12.4513 17.582 12.497Z" fill="#4630D4" fill-opacity="0.5"/>
<path d="M17.582 12.497C17.4447 12.634 17.4905 12.977 17.662 13.034C17.742 13.0682 18.062 13.137 18.3705 13.1713C18.679 13.217 19.022 13.354 19.1362 13.4686C19.4447 13.7886 19.9705 13.7543 20.2105 13.3886C20.382 13.1143 20.382 13.057 20.2332 12.7828C20.0617 12.4855 19.8562 12.4513 18.9878 12.5658C18.8962 12.5774 18.5535 12.5431 18.245 12.4974C17.9247 12.4513 17.6274 12.4513 17.582 12.497Z" stroke="#3F65EA" stroke-width="0.6"/>
<path d="M17.582 12.497C17.4447 12.634 17.4905 12.977 17.662 13.034C17.742 13.0682 18.062 13.137 18.3705 13.1713C18.679 13.217 19.022 13.354 19.1362 13.4686C19.4447 13.7886 19.9705 13.7543 20.2105 13.3886C20.382 13.1143 20.382 13.057 20.2332 12.7828C20.0617 12.4855 19.8562 12.4513 18.9878 12.5658C18.8962 12.5774 18.5535 12.5431 18.245 12.4974C17.9247 12.4513 17.6274 12.4513 17.582 12.497Z" stroke="#4630D4" stroke-opacity="0.5" stroke-width="0.6"/>
<path d="M21.1587 23.1706C19.2845 23.4333 17.7187 23.9706 17.2275 24.5306C17.0902 24.6791 16.999 24.9421 16.999 25.1933C16.999 26.4733 19.7302 27.3075 23.9014 27.296C27.2611 27.296 29.5353 26.8045 30.4611 25.8903C30.8381 25.5133 30.8953 25.4103 30.8265 25.0903C30.7238 24.5875 30.4038 24.2791 29.5923 23.9133C28.3353 23.3533 27.0781 23.1591 24.3584 23.1133C23.0102 23.0906 21.5702 23.1133 21.1587 23.1706ZM27.1357 23.9018C29.0899 24.2218 30.4041 24.8387 30.1184 25.3075C29.3984 26.496 23.8445 27.0903 20.2217 26.3703C19.0105 26.1303 17.8905 25.6618 17.6848 25.3187C17.3305 24.7245 19.2848 23.9933 21.936 23.7418C23.2272 23.616 25.8557 23.6963 27.1357 23.9018Z" fill="#3F65EA"/>
<path d="M21.1587 23.1706C19.2845 23.4333 17.7187 23.9706 17.2275 24.5306C17.0902 24.6791 16.999 24.9421 16.999 25.1933C16.999 26.4733 19.7302 27.3075 23.9014 27.296C27.2611 27.296 29.5353 26.8045 30.4611 25.8903C30.8381 25.5133 30.8953 25.4103 30.8265 25.0903C30.7238 24.5875 30.4038 24.2791 29.5923 23.9133C28.3353 23.3533 27.0781 23.1591 24.3584 23.1133C23.0102 23.0906 21.5702 23.1133 21.1587 23.1706ZM27.1357 23.9018C29.0899 24.2218 30.4041 24.8387 30.1184 25.3075C29.3984 26.496 23.8445 27.0903 20.2217 26.3703C19.0105 26.1303 17.8905 25.6618 17.6848 25.3187C17.3305 24.7245 19.2848 23.9933 21.936 23.7418C23.2272 23.616 25.8557 23.6963 27.1357 23.9018Z" fill="#4630D4" fill-opacity="0.5"/>
<path d="M21.1587 23.1706C19.2845 23.4333 17.7187 23.9706 17.2275 24.5306C17.0902 24.6791 16.999 24.9421 16.999 25.1933C16.999 26.4733 19.7302 27.3075 23.9014 27.296C27.2611 27.296 29.5353 26.8045 30.4611 25.8903C30.8381 25.5133 30.8953 25.4103 30.8265 25.0903C30.7238 24.5875 30.4038 24.2791 29.5923 23.9133C28.3353 23.3533 27.0781 23.1591 24.3584 23.1133C23.0102 23.0906 21.5702 23.1133 21.1587 23.1706ZM27.1357 23.9018C29.0899 24.2218 30.4041 24.8387 30.1184 25.3075C29.3984 26.496 23.8445 27.0903 20.2217 26.3703C19.0105 26.1303 17.8905 25.6618 17.6848 25.3187C17.3305 24.7245 19.2848 23.9933 21.936 23.7418C23.2272 23.616 25.8557 23.6963 27.1357 23.9018Z" stroke="#3F65EA" stroke-width="0.6"/>
<path d="M21.1587 23.1706C19.2845 23.4333 17.7187 23.9706 17.2275 24.5306C17.0902 24.6791 16.999 24.9421 16.999 25.1933C16.999 26.4733 19.7302 27.3075 23.9014 27.296C27.2611 27.296 29.5353 26.8045 30.4611 25.8903C30.8381 25.5133 30.8953 25.4103 30.8265 25.0903C30.7238 24.5875 30.4038 24.2791 29.5923 23.9133C28.3353 23.3533 27.0781 23.1591 24.3584 23.1133C23.0102 23.0906 21.5702 23.1133 21.1587 23.1706ZM27.1357 23.9018C29.0899 24.2218 30.4041 24.8387 30.1184 25.3075C29.3984 26.496 23.8445 27.0903 20.2217 26.3703C19.0105 26.1303 17.8905 25.6618 17.6848 25.3187C17.3305 24.7245 19.2848 23.9933 21.936 23.7418C23.2272 23.616 25.8557 23.6963 27.1357 23.9018Z" stroke="#4630D4" stroke-opacity="0.5" stroke-width="0.6"/>
</svg>
