<svg width="48" height="48" viewBox="0 0 48 48" fill="none" xmlns="http://www.w3.org/2000/svg">
<g opacity="0.1">
<circle cx="24" cy="24" r="24" fill="#3F65EA"/>
<circle cx="24" cy="24" r="24" fill="#4630D4" fill-opacity="0.5"/>
</g>
<path d="M14.9788 23.7333C17.6702 21.5382 21.0623 20.3362 24.5651 20.3362C28.068 20.3362 31.46 21.5382 34.1515 23.7333" stroke="#424ADF" stroke-width="2" stroke-linecap="round" stroke-linejoin="round"/>
<path d="M10.1038 19C14.0832 15.5653 19.2058 13.6702 24.5106 13.6702C29.8154 13.6702 34.9379 15.5653 38.9174 19" stroke="#424ADF" stroke-width="2" stroke-linecap="round" stroke-linejoin="round"/>
<path d="M19.7854 28.48C21.1678 27.5184 22.8216 27.0017 24.5173 27.0017C26.2131 27.0017 27.8668 27.5184 29.2492 28.48" stroke="#424ADF" stroke-width="2" stroke-linecap="round" stroke-linejoin="round"/>
<path d="M24.5105 33.6667H24.5245" stroke="#424ADF" stroke-width="2" stroke-linecap="round" stroke-linejoin="round"/>
</svg>
