<?xml version="1.0" encoding="UTF-8"?>
<svg id="Calque_1" data-name="Calque 1" xmlns="http://www.w3.org/2000/svg" viewBox="0 0 19 16">
  <path d="m7.72,16c-.26,0-.53-.1-.72-.31L.28,8.69c-.37-.39-.37-1,0-1.38L7,.31c.38-.4,1.02-.41,1.41-.03.4.38.41,1.02.03,1.41L3.31,7.03h14.69c.55,0,1,.45,1,1s-.45,1-1,1H3.38l5.06,5.28c.38.4.37,1.03-.03,1.41-.19.19-.44.28-.69.28Z"/>
</svg>