<?xml version="1.0" encoding="UTF-8"?>
<svg id="Calque_1" data-name="Calque 1" xmlns="http://www.w3.org/2000/svg" viewBox="0 0 8.96 15.93">
  <path d="m7.96,15.93c-.26,0-.51-.1-.71-.29L.29,8.67C.11,8.48,0,8.23,0,7.96s.11-.52.29-.71L7.26.29c.39-.39,1.02-.39,1.41,0s.39,1.02,0,1.41L2.41,7.96l6.26,6.26c.39.39.39,1.02,0,1.41-.2.2-.45.29-.71.29Z"/>
</svg>