<?xml version="1.0" encoding="UTF-8"?>
<svg id="Calque_1" data-name="Calque 1" xmlns="http://www.w3.org/2000/svg" viewBox="0 0 22.25 15.5">
  <path d="m21.25,8.75H1c-.55,0-1-.45-1-1s.45-1,1-1h20.25c.55,0,1,.45,1,1s-.45,1-1,1Zm1-7.75c0-.55-.45-1-1-1H1C.45,0,0,.45,0,1s.45,1,1,1h20.25c.55,0,1-.45,1-1Zm0,13.5c0-.55-.45-1-1-1H1c-.55,0-1,.45-1,1s.45,1,1,1h20.25c.55,0,1-.45,1-1Z"/>
</svg>