<?xml version="1.0" encoding="UTF-8"?>
<svg id="Calque_1" data-name="Calque 1" xmlns="http://www.w3.org/2000/svg" viewBox="0 0 17 17">
  <path d="m14.5,0H4.75C2.92,0,2.25,1.49,2.25,2.5v8.75H1C.45,11.25,0,11.7,0,12.25v2.25C0,15.5.67,17,2.5,17h9c1.83,0,2.5-1.5,2.5-2.5V5.75h2c.55,0,1-.45,1-1v-2.25C17,1.49,16.33,0,14.5,0ZM2.5,15c-.17,0-.48,0-.5-.5v-1.25h7v1.25c0,.16.02.33.05.5H2.5ZM12,2.5v2.24h0v9.74c-.02.52-.33.52-.5.52s-.48,0-.5-.5v-2.25c0-.55-.45-1-1-1h-5.75V2.52c.02-.52.33-.52.5-.52h7.31c-.03.17-.06.34-.06.5Zm3,1.25h-1v-1.23c.02-.52.33-.52.5-.52s.48,0,.5.5v1.25Zm-9.75,1.75c0-.55.45-1,1-1h3.75c.55,0,1,.45,1,1s-.45,1-1,1h-3.75c-.55,0-1-.45-1-1Zm0,3c0-.55.45-1,1-1h3.75c.55,0,1,.45,1,1s-.45,1-1,1h-3.75c-.55,0-1-.45-1-1Z"/>
</svg>