<?xml version="1.0" encoding="UTF-8"?>
<svg id="Calque_1" data-name="Calque 1" xmlns="http://www.w3.org/2000/svg" viewBox="0 0 18 18">
  <path d="m16.67,0H1.33C.59,0,0,.58,0,1.3v15.4c0,.72.59,1.3,1.33,1.3h15.34c.73,0,1.33-.58,1.33-1.3V1.3c0-.72-.6-1.3-1.33-1.3ZM5.34,15.34h-2.67V6.75h2.67v8.59Zm-1.34-9.76c-.86,0-1.55-.69-1.55-1.55s.69-1.55,1.55-1.55,1.55.69,1.55,1.55-.69,1.55-1.55,1.55Zm11.33,9.76h-2.67v-4.18c0-.99-.02-2.28-1.39-2.28s-1.6,1.09-1.6,2.21v4.25h-2.66V6.75h2.56v1.17h.04c.36-.68,1.23-1.39,2.52-1.39,2.7,0,3.2,1.78,3.2,4.09v4.71Z"/>
</svg>