<?xml version="1.0" encoding="UTF-8"?>
<svg id="Calque_1" data-name="Calque 1" xmlns="http://www.w3.org/2000/svg" viewBox="0 0 11 2">
  <path d="m10,0H1C.45,0,0,.45,0,1s.45,1,1,1h9c.55,0,1-.45,1-1S10.55,0,10,0Z"/>
</svg>