<?xml version="1.0" encoding="UTF-8"?>
<svg id="Calque_1" data-name="Calque 1" xmlns="http://www.w3.org/2000/svg" viewBox="0 0 23.54 21.5">
  <path d="m23.52,10.15l-.31-2.16c-.15-1.07-.77-2.01-1.69-2.58-.72-.44-1.55-.61-2.37-.51C17.93,2.03,15.08,0,11.77,0s-6.16,2.03-7.38,4.9c-.82-.11-1.66.06-2.37.51-.92.57-1.54,1.51-1.69,2.58L.03,10.15c-.1.72.11,1.44.59,1.99s1.16.86,1.89.86h1.27v1.5c0,2.48,2.02,4.5,4.5,4.5.21,0,.42-.02.62-.05.29,1.24,1.14,2.55,2.88,2.55s2.59-1.31,2.88-2.55c.2.03.41.05.62.05,2.48,0,4.5-2.02,4.5-4.5v-1.5h1.27c.73,0,1.41-.31,1.89-.86s.69-1.27.59-1.99Zm-21.02.85c-.2,0-.32-.11-.38-.17-.06-.06-.15-.2-.12-.4l.31-2.16c.07-.48.35-.91.76-1.16.21-.13.45-.21.7-.24v4.13h-1.27Zm9.27,8.5c-.76,0-.94-.85-.98-1.28.37-.25.7-.55.98-.9.28.35.62.65.99.9-.04.42-.22,1.28-.99,1.28Zm6-5c0,1.38-1.12,2.5-2.5,2.5-1.31,0-2.37-1.01-2.48-2.29.58-.35.98-.98.98-1.71,0-1.1-.9-2-2-2s-2,.9-2,2c0,.73.4,1.36.98,1.71-.11,1.28-1.17,2.29-2.48,2.29-1.38,0-2.5-1.12-2.5-2.5v-6.5c0-3.31,2.69-6,6-6s6,2.69,6,6v6.5Zm3.65-3.67c-.06.06-.18.17-.38.17h-1.27v-4.13c.24.02.48.1.7.24.41.26.69.68.76,1.16l.31,2.16c.03.2-.06.33-.12.4Zm-10.65-2.83v.5c0,.55-.45,1-1,1s-1-.45-1-1v-.5c0-.55.45-1,1-1s1,.45,1,1Zm4,0v.5c0,.55-.45,1-1,1s-1-.45-1-1v-.5c0-.55.45-1,1-1s1,.45,1,1Z"/>
</svg>