<?xml version="1.0" encoding="UTF-8"?>
<svg id="Calque_1" data-name="Calque 1" xmlns="http://www.w3.org/2000/svg" viewBox="0 0 18 18">
  <path d="m18,7.28c-.17.01-.34.02-.52.02-.93,0-1.85-.2-2.67-.58-.82-.38-1.52-.93-2.03-1.6v7.4c0,1.08-.37,2.14-1.08,3.04-.7.9-1.7,1.6-2.87,2.01-1.17.41-2.45.52-3.69.31-1.24-.21-2.38-.73-3.27-1.5-.89-.76-1.5-1.74-1.75-2.8-.25-1.06-.12-2.16.36-3.16.48-1,1.3-1.85,2.35-2.45,1.05-.6,2.29-.92,3.55-.92.13,0,.26.01.39.02v2.69c-.13-.01-.26-.03-.39-.03-.87,0-1.69.29-2.31.82-.61.52-.96,1.23-.96,1.97s.34,1.45.96,1.97c.61.52,1.44.82,2.31.82,1.8,0,3.39-1.21,3.39-2.76l.03-12.57h3.01c.14,1.12.73,2.16,1.68,2.95.95.78,2.18,1.26,3.5,1.34v3"/>
</svg>