<?xml version="1.0" encoding="UTF-8"?>
<svg id="Calque_1" data-name="Calque 1" xmlns="http://www.w3.org/2000/svg" viewBox="0 0 18 18">
  <path d="m5.66,16.31c6.79,0,10.51-5.63,10.51-10.51,0-.16,0-.32-.01-.48.72-.52,1.35-1.17,1.84-1.91-.67.3-1.39.5-2.12.58.77-.46,1.35-1.19,1.62-2.04-.72.43-1.52.73-2.34.9-.56-.59-1.29-.98-2.1-1.11-.8-.13-1.62,0-2.34.39-.72.38-1.29.99-1.62,1.73-.34.74-.42,1.57-.24,2.36-1.47-.07-2.9-.45-4.21-1.12-1.31-.66-2.47-1.6-3.4-2.74-.47.81-.62,1.77-.4,2.69.21.92.77,1.72,1.55,2.24-.59-.02-1.16-.18-1.67-.46v.05c0,.85.29,1.68.83,2.34.54.66,1.29,1.11,2.13,1.28-.54.15-1.11.17-1.67.06.24.73.7,1.38,1.31,1.84s1.36.72,2.13.73c-1.31,1.03-2.92,1.58-4.59,1.58-.29,0-.59-.02-.88-.05,1.69,1.08,3.66,1.66,5.66,1.66Z"/>
</svg>