<?xml version="1.0" encoding="UTF-8"?>
<svg id="Calque_1" data-name="Calque 1" xmlns="http://www.w3.org/2000/svg" viewBox="0 0 24 20">
  <path d="m16.54,13.46c.94.94,1.46,2.2,1.46,3.54v2c0,.55-.45,1-1,1s-1-.45-1-1v-2c0-.8-.31-1.56-.88-2.12s-1.32-.88-2.12-.88H5c-.79,0-1.56.32-2.12.88-.57.57-.88,1.32-.88,2.12v2c0,.55-.45,1-1,1S0,19.55,0,19v-2C0,15.66.52,14.41,1.46,13.46c.94-.94,2.2-1.46,3.54-1.46h8c1.34,0,2.59.52,3.54,1.46ZM4,5C4,2.24,6.24,0,9,0s5,2.24,5,5-2.24,5-5,5S4,7.76,4,5Zm2,0c0,1.65,1.35,3,3,3s3-1.35,3-3-1.35-3-3-3-3,1.35-3,3Zm16.95,8.94c-.67-.87-1.63-1.5-2.7-1.78-.54-.14-1.08.18-1.22.72-.14.53.18,1.08.72,1.22.64.17,1.22.54,1.62,1.07.4.52.63,1.17.63,1.83v2c0,.55.45,1,1,1s1-.45,1-1v-2c0-1.1-.37-2.19-1.05-3.06Zm-3.99-12c-.68-.87-1.64-1.5-2.71-1.78-.54-.14-1.08.19-1.22.72-.14.54.19,1.08.72,1.22.64.16,1.22.54,1.63,1.07.41.52.63,1.18.63,1.84s-.22,1.32-.63,1.84c-.41.52-.98.9-1.63,1.07-.53.14-.86.68-.72,1.22.12.45.52.75.97.75.08,0,.17,0,.25-.03,1.07-.27,2.03-.9,2.71-1.78.68-.87,1.05-1.96,1.05-3.07s-.37-2.19-1.05-3.07Z"/>
</svg>