<?xml version="1.0" encoding="UTF-8"?>
<svg id="Calque_1" data-name="Calque 1" xmlns="http://www.w3.org/2000/svg" viewBox="0 0 14 14">
  <path d="m13.71,12.29c.39.39.39,1.02,0,1.41-.2.2-.45.29-.71.29s-.51-.1-.71-.29l-5.29-5.29L1.71,13.71c-.2.2-.45.29-.71.29s-.51-.1-.71-.29c-.39-.39-.39-1.02,0-1.41l5.29-5.29L.29,1.71C-.1,1.32-.1.68.29.29S1.32-.1,1.71.29l5.29,5.29L12.29.29c.39-.39,1.02-.39,1.41,0s.39,1.02,0,1.41l-5.29,5.29,5.29,5.29Z"/>
</svg>